pane	0	1	:zsh	1	:*	1	:/home/briain	1	zsh	:
pane	1	1	:zsh	1	:*	1	:/home/briain	1	zsh	:
pane	2	1	:zsh	1	:*	1	:/home/briain	1	zsh	:
pane	3	1	:zsh	1	:*	1	:/home/briain	1	zsh	:
pane	4	1	:zsh	1	:*	1	:/home/briain	1	zsh	:
pane	5	1	:python3.7	1	:*	1	:/	1	python3.7	:/usr/bin/python3.7 -O /usr/bin/ranger
window	0	1	1	:*	ae5d,80x23,0,0,0
window	1	1	1	:*	ae5e,80x23,0,0,1
window	2	1	1	:*	ae5f,80x23,0,0,2
window	3	1	1	:*	ba00,107x24,0,0,3
window	4	1	1	:*	c201,107x26,0,0,4
window	5	1	1	:*	c202,107x26,0,0,5
state	5	
